<?xml version="1.0" encoding="utf-8"?>
<!-- Generator: Adobe Illustrator 19.2.1, SVG Export Plug-In . SVG Version: 6.00 Build 0)  -->
<svg version="1.2" baseProfile="tiny" id="Layer_1" xmlns="http://www.w3.org/2000/svg" xmlns:xlink="http://www.w3.org/1999/xlink"
	 x="0px" y="0px" viewBox="0 0 403.9 404.9" xml:space="preserve">
<g>
	<g>
		<path fill="#03A9F4" d="M401.8,370.4c0.1,0.3,0.2,0.6,0.3,0.9C402.1,371,402,370.7,401.8,370.4z"/>
		<path fill="#03A9F4" d="M401,368.3c0.2,0.5,0.4,0.9,0.6,1.4C401.4,369.2,401.2,368.8,401,368.3z"/>
		<path fill="#03A9F4" d="M273.8,230.2c-0.4,0-0.8,0-1.2,0c0.4,0,0.9,0,1.3,0C273.9,230.2,273.8,230.2,273.8,230.2z"/>
		<path fill="#03A9F4" d="M370.2,387.5l-78.5-78.8c-2.5,0.3-5.4,0.6-8.2,0.6c-24.3,0-44.1-19.8-44.1-44.1c0-9.8,3.1-18.9,8.5-26.5
			c7.1-5,15.3-8.1,24.3-8.5c-23.5,0.8-42.6,20.3-42.6,44.1c0,24.3,19.9,44.1,44.1,44.1c2.8,0,5.7-0.3,8.2-0.6l78.5,78.8
			c9.8,9.8,25.5,9.8,35.3,0c1.6-1.6,3-3.3,4.1-5.2C390.5,396.6,378.3,395.3,370.2,387.5z"/>
		<path fill="#03A9F4" d="M402.6,372.7c0,0.2,0.1,0.3,0.1,0.5C402.6,373,402.6,372.8,402.6,372.7z"/>
		<path fill="#03A9F4" d="M397.6,363c0.4,0.5,0.8,0.9,1.1,1.4C398.4,363.9,398,363.5,397.6,363z"/>
		<path fill="#03A9F4" d="M400,366.4c0.3,0.5,0.5,0.9,0.7,1.4C400.5,367.4,400.3,366.9,400,366.4z"/>
		<path fill="#03A9F4" d="M398.9,364.8c0.3,0.5,0.7,1,1,1.5C399.6,365.7,399.3,365.2,398.9,364.8z"/>
		<path fill="#03A9F4" d="M396.1,361.3c0.5,0.5,0.9,0.9,1.3,1.4C396.9,362.2,396.5,361.8,396.1,361.3z"/>
		<path fill="#0287C3" d="M402.6,372.7c-0.1-0.4-0.2-0.9-0.4-1.3c-0.1-0.3-0.2-0.6-0.3-0.9c-0.1-0.2-0.2-0.4-0.3-0.7
			c-0.2-0.5-0.4-0.9-0.6-1.4c-0.1-0.2-0.2-0.3-0.2-0.5c-0.2-0.5-0.5-0.9-0.7-1.4c0-0.1-0.1-0.1-0.1-0.2c-0.3-0.5-0.6-1-1-1.5
			c-0.1-0.1-0.1-0.2-0.2-0.3c-0.4-0.5-0.7-1-1.1-1.4c-0.1-0.1-0.2-0.2-0.2-0.3c-0.4-0.5-0.9-1-1.3-1.4l-78.5-78.8
			c0.6-2.5,0.6-5.4,0.6-8.2c0-24.3-19.8-44.1-44.1-44.1c-0.1,0-0.1,0-0.2,0c-0.4,0-0.9,0-1.3,0c-0.1,0-0.2,0-0.4,0
			c-9,0.4-17.2,3.5-24.3,8.5c-5.4,7.6-8.5,16.7-8.5,26.5c0,24.3,19.8,44.1,44.1,44.1c2.8,0,5.7-0.3,8.2-0.6l78.5,78.8
			c8.1,7.8,20.2,9.1,29.7,3.9c0.1-0.1,0.2-0.1,0.3-0.1c3.1-5.5,4-12,2.5-18.1C402.6,373,402.6,372.8,402.6,372.7z"/>
	</g>
	<path fill="#B4E7F8" d="M163.8,32.1c73.1,0,132.3,59.2,132.3,132.3c0,73.1-59.2,132.3-132.3,132.3S31.5,237.5,31.5,164.4
		C31.5,91.3,90.7,32.1,163.8,32.1L163.8,32.1z M163.8,32.1"/>
	<path fill="#03A9F4" d="M163.8,32.1c-39.7,0-75.3,17.6-99.6,45.4c23.3-20.5,53.6-32.8,87-32.8c73.1,0,132.3,59.2,132.3,132.3
		c0,33.4-12.3,63.6-32.8,87c27.7-24.3,45.4-59.9,45.4-99.6C296.2,91.3,236.9,32.1,163.8,32.1L163.8,32.1z M163.8,32.1"/>
	<path fill="#F75E2E" d="M163.8,0.5C73.4,0.5,0,74,0,164.4s73.4,163.8,163.8,163.8s163.8-73.4,163.8-163.8S254.3,0.5,163.8,0.5
		L163.8,0.5z M163.8,293.6c-71.2,0-129.2-58-129.2-129.2s58-129.2,129.2-129.2S293,93.2,293,164.4S235,293.6,163.8,293.6
		L163.8,293.6z M163.8,0.5C73.4,0.5,0,74,0,164.4s73.4,163.8,163.8,163.8s163.8-73.4,163.8-163.8S254.3,0.5,163.8,0.5L163.8,0.5z
		 M163.8,293.6c-71.2,0-129.2-58-129.2-129.2s58-129.2,129.2-129.2S293,93.2,293,164.4S235,293.6,163.8,293.6L163.8,293.6z
		 M163.8,293.6"/>
</g>
</svg>
